Final Project
…
Part 3 Sentiment Analysis

Tidy the ratings variable

ratings = ted %>%
  select(no, ratings) %>% 
  mutate(ratings = substring(ratings,3, nchar(ratings)-2)) %>% 
  mutate(ratings = str_split(ratings,"\\}, \\{")) %>% 
  unnest(ratings) %>% 
  mutate(rat.words = sub(".*name': '(.*?)',.*", "\\1", ratings),
         rat.words = tolower(rat.words),
         rat.cnt = as.numeric(sub(".*'count': ", "", ratings))) %>%
  select(-ratings) %>% print()

## # A tibble: 35,700 x 3
##       no    rat.words rat.cnt
##    <int>        <chr>   <dbl>
##  1     1        funny   19645
##  2     1    beautiful    4573
##  3     1    ingenious    6073
##  4     1   courageous    3253
##  5     1   longwinded     387
##  6     1    confusing     242
##  7     1  informative    7346
##  8     1  fascinating   10581
##  9     1 unconvincing     300
## 10     1   persuasive   10704
## # ... with 35,690 more rows
…
